                              ............
                            ................
                           ..................
                          ....................
                          ....................
                           ..................
                       ....\ ............../
   ...........      .........................
 ..............\  /......../######\....../###\.
................v.........##########\...#######\
..........................|######/..\##.|####/.\#|       ....
..................#####\.,|######....##.|####...#|     .......
................|########.|######....##.|####...#|     .......
...............#########_|######\../##.|####\./#|   /##\....
 ..............###############################nn\/#######^
   \........./ \########~##############nnnnn.###########/
                ########|##########nnnnn.##############/
                 #######| \###########################/
                  \###.##\    \######################
                    \##.##\   ___   \#############/
                       \.##\/.../..\         /##/
                          \##\/..../     /####/
  Art by Ye Haitao            \#############/